Lab2_328/simulation/qsim/Lab2_impl.msim.vcd
$comment
	File created using the following command:
		vcd file Lab2_impl.msim.vcd -direction
$end
$date
	Wed Jul 15 19:58:23 2020
$end
$version
	ModelSim Version 10.1d
$end
$timescale
	1ps
$end
$scope module Lab2schm_vlg_vec_tst $end
$var reg 1 ! A $end
$var reg 1 " B $end
$var reg 1 # C $end
$var reg 1 $ D $end
$var wire 1 % f $end
$var wire 1 & sampler $end
$scope module i1 $end
$var wire 1 ' gnd $end
$var wire 1 ( vcc $end
$var wire 1 ) unknown $end
$var tri1 1 * devclrn $end
$var tri1 1 + devpor $end
$var tri1 1 , devoe $end
$var wire 1 - B~combout $end
$var wire 1 . D~combout $end
$var wire 1 / A~combout $end
$var wire 1 0 C~combout $end
$var wire 1 1 inst~0_combout $end
$upscope $end
$upscope $end
$enddefinitions $end
#0
$dumpvars
0!
0"
0#
0$
1%
x&
0'
1(
x)
1*
1+
1,
0-
0.
0/
00
11
$end
#10000
1$
1.
0&
#20000
1#
0$
10
0.
1&
01
0%
#30000
1$
1.
0&
#40000
1"
0#
0$
1-
00
0.
1&
#50000
1$
1.
0&
#60000
1#
0$
10
0.
1&
#70000
1$
1.
0&
#80000
1!
0"
0#
0$
1/
0-
00
0.
1&
#90000
1$
1.
0&
11
1%
#100000
1#
0$
10
0.
1&
01
0%
#110000
1$
1.
0&
11
1%
#120000
1"
0#
0$
1-
00
0.
1&
01
0%
#130000
1$
1.
0&
11
1%
#140000
1#
0$
10
0.
1&
01
0%
#150000
1$
1.
0&
11
1%
