lab5_328/simulation/qsim/lab5.msim.vcd
$comment
	File created using the following command:
		vcd file lab5.msim.vcd -direction
$end
$date
	Thu Aug 06 18:28:55 2020
$end
$version
	ModelSim Version 10.1d
$end
$timescale
	1ps
$end
$scope module MealyFSMschem_vlg_vec_tst $end
$var reg 1 ! clk $end
$var reg 1 " data_in $end
$var reg 1 # reset $end
$var wire 1 $ current_state [3] $end
$var wire 1 % current_state [2] $end
$var wire 1 & current_state [1] $end
$var wire 1 ' current_state [0] $end
$var wire 1 ( student_ID [3] $end
$var wire 1 ) student_ID [2] $end
$var wire 1 * student_ID [1] $end
$var wire 1 + student_ID [0] $end
$var wire 1 , sampler $end
$scope module i1 $end
$var wire 1 - gnd $end
$var wire 1 . vcc $end
$var wire 1 / unknown $end
$var tri1 1 0 devclrn $end
$var tri1 1 1 devpor $end
$var tri1 1 2 devoe $end
$var wire 1 3 clk~combout $end
$var wire 1 4 clk~clkctrl_outclk $end
$var wire 1 5 data_in~combout $end
$var wire 1 6 reset~combout $end
$var wire 1 7 reset~clkctrl_outclk $end
$var wire 1 8 inst|yfsm.s8~regout $end
$var wire 1 9 inst|yfsm.s2~regout $end
$var wire 1 : inst|yfsm.s7~regout $end
$var wire 1 ; inst|yfsm.s3~regout $end
$var wire 1 < inst|yfsm.s6~regout $end
$var wire 1 = inst|yfsm.s4~feeder_combout $end
$var wire 1 > inst|yfsm.s4~regout $end
$var wire 1 ? inst|yfsm.s5~regout $end
$var wire 1 @ inst|Selector9~0_combout $end
$var wire 1 A inst|yfsm.s0~0_combout $end
$var wire 1 B inst|yfsm.s0~regout $end
$var wire 1 C inst|yfsm.s1~0_combout $end
$var wire 1 D inst|yfsm.s1~regout $end
$var wire 1 E inst|Selector11~0_combout $end
$var wire 1 F inst|Selector12~1_combout $end
$var wire 1 G inst|Selector12~0_combout $end
$var wire 1 H inst|Selector12~2_combout $end
$var wire 1 I inst|Selector13~0_combout $end
$var wire 1 J inst|Selector13~1_combout $end
$var wire 1 K inst|Selector14~1_combout $end
$var wire 1 L inst|Selector14~0_combout $end
$var wire 1 M inst|Selector14~2_combout $end
$var wire 1 N inst|Selector8~0_combout $end
$var wire 1 O inst|Selector10~1_combout $end
$var wire 1 P inst|Selector10~0_combout $end
$var wire 1 Q inst|Selector10~2_combout $end
$upscope $end
$upscope $end
$enddefinitions $end
#0
$dumpvars
0!
0"
0#
0'
0&
0%
0$
1+
0*
1)
0(
x,
0-
1.
x/
10
11
12
03
04
05
06
07
08
09
0:
0;
0<
0=
0>
0?
1@
0A
0B
1C
0D
0E
0F
0G
0H
1I
0J
0K
0L
0M
0N
0O
1P
1Q
$end
#10000
1!
1"
13
15
14
0,
0P
1K
0@
0Q
1M
1A
0)
0+
1'
1D
1E
1$
#20000
0!
03
04
1,
#30000
1!
13
14
0,
1B
18
0K
0C
0I
0M
1N
1J
0'
1(
1&
#40000
0!
03
04
1,
#50000
1!
13
14
0,
0D
19
0E
1O
1K
1G
1Q
1M
1H
0$
1+
1'
1%
#60000
0!
03
04
1,
#70000
1!
13
14
0,
1:
08
#80000
0!
03
04
1,
#90000
1!
13
14
0,
1;
09
0O
0K
0Q
0+
#100000
0!
03
04
1,
#110000
1!
13
14
0,
1<
0:
1O
1F
1=
0M
1I
1Q
0N
0'
1+
0(
#120000
0!
03
04
1,
#130000
1!
13
14
0,
1>
0;
1K
0J
1M
0&
1'
#140000
0!
03
04
1,
#150000
1!
13
14
0,
1?
0<
0F
1@
0=
0A
1)
#160000
0!
03
04
1,
#170000
1!
13
14
0,
0B
0>
1C
0G
0H
0%
#180000
0!
03
04
1,
#190000
1!
13
14
0,
1D
0?
1E
0O
0@
0Q
1A
1$
0)
0+
#200000
0!
03
04
1,
#210000
1!
13
14
0,
1B
18
0K
0C
0I
0M
1N
1J
0'
1(
1&
#220000
0!
03
04
1,
#230000
1!
13
14
0,
0D
19
0E
1O
1K
1G
1Q
1M
1H
0$
1+
1'
1%
#240000
0!
03
04
1,
#250000
1!
13
14
0,
1:
08
#260000
0!
03
04
1,
#270000
1!
13
14
0,
1;
09
0O
0K
0Q
0+
#280000
0!
03
04
1,
#290000
1!
13
14
0,
1<
0:
1O
1F
1=
0M
1I
1Q
0N
0'
1+
0(
