lab5_328/test/simulation/qsim/lab5test.msim.vcd
$comment
	File created using the following command:
		vcd file lab5test.msim.vcd -direction
$end
$date
	Thu Aug 06 18:46:24 2020
$end
$version
	ModelSim Version 10.1d
$end
$timescale
	1ps
$end
$scope module lab5test_vlg_vec_tst $end
$var reg 1 ! clk $end
$var reg 1 " data_in $end
$var reg 1 # reset $end
$var wire 1 $ current_state [3] $end
$var wire 1 % current_state [2] $end
$var wire 1 & current_state [1] $end
$var wire 1 ' current_state [0] $end
$var wire 1 ( student_ID [3] $end
$var wire 1 ) student_ID [2] $end
$var wire 1 * student_ID [1] $end
$var wire 1 + student_ID [0] $end
$var wire 1 , sampler $end
$scope module i1 $end
$var wire 1 - gnd $end
$var wire 1 . vcc $end
$var wire 1 / unknown $end
$var tri1 1 0 devclrn $end
$var tri1 1 1 devpor $end
$var tri1 1 2 devoe $end
$var wire 1 3 clk~combout $end
$var wire 1 4 clk~clkctrl_outclk $end
$var wire 1 5 data_in~combout $end
$var wire 1 6 reset~combout $end
$var wire 1 7 reset~clkctrl_outclk $end
$var wire 1 8 yfsm.s3~regout $end
$var wire 1 9 yfsm.s6~regout $end
$var wire 1 : yfsm.s4~regout $end
$var wire 1 ; yfsm.s5~regout $end
$var wire 1 < yfsm.s0~0_combout $end
$var wire 1 = yfsm.s0~regout $end
$var wire 1 > yfsm.s1~0_combout $end
$var wire 1 ? yfsm.s1~regout $end
$var wire 1 @ yfsm.s8~regout $end
$var wire 1 A yfsm.s2~regout $end
$var wire 1 B yfsm.s7~regout $end
$var wire 1 C Selector15~0_combout $end
$var wire 1 D Selector15~1_combout $end
$var wire 1 E Selector15~2_combout $end
$var wire 1 F Selector11~0_combout $end
$var wire 1 G Selector10~0_combout $end
$var wire 1 H Selector10~1_combout $end
$var wire 1 I Selector9~0_combout $end
$var wire 1 J Selector9~1_combout $end
$var wire 1 K Selector9~2_combout $end
$var wire 1 L Selector14~1_combout $end
$var wire 1 M Selector14~0_combout $end
$var wire 1 N Selector14~2_combout $end
$var wire 1 O Selector13~0_combout $end
$var wire 1 P Selector13~1_combout $end
$var wire 1 Q Selector12~0_combout $end
$upscope $end
$upscope $end
$enddefinitions $end
#0
$dumpvars
0!
0"
0#
0'
0&
0%
0$
1+
0*
1)
0(
x,
0-
1.
x/
10
11
12
03
04
05
06
07
08
09
0:
0;
1<
0=
1>
0?
0@
0A
0B
1C
0D
1E
1F
0G
0H
1I
0J
0K
0L
0M
0N
0O
0P
0Q
$end
#10000
1!
1"
13
15
14
0,
1K
0F
0C
0E
1'
0)
0+
1?
1=
1M
1J
0I
0>
1N
0K
1&
0'
#20000
0!
0"
03
05
04
1,
0M
1K
0N
1'
0&
#30000
1!
1"
13
15
14
0,
1M
0K
1N
0'
1&
1@
0?
1F
1D
0M
0J
1E
0N
1)
1+
0&
#40000
0!
0"
03
05
04
1,
1Q
0F
0D
0E
1$
0)
0+
#50000
1!
1"
13
15
14
0,
0Q
1F
1D
1E
0$
1)
1+
1A
0@
1M
1I
1G
0F
0D
1N
1K
1H
0E
0)
1&
1'
1(
0+
#60000
0!
0"
03
05
04
1,
0K
0G
0H
0'
0(
#70000
1!
1"
13
15
14
0,
1K
1G
1H
1'
1(
1B
0A
1Q
1J
0M
0I
0G
0K
0N
0H
1$
0'
0&
0(
#80000
0!
0"
03
05
04
1,
0Q
1O
1L
1K
1C
1P
1N
1E
0$
1'
1%
1&
1+
#90000
1!
1"
13
15
14
0,
1Q
0O
0L
0K
0C
0P
0N
0E
1$
0'
0%
0&
0+
0B
18
0Q
1O
1G
1D
1P
1H
1E
0$
1%
1(
1+
#100000
0!
0"
03
05
04
1,
0O
1L
1K
0D
0P
1N
0E
1'
0%
1&
0+
#110000
1!
1"
13
15
14
0,
1O
0L
0K
1D
1P
0N
1E
0'
1%
0&
1+
19
08
1L
1I
0O
0J
0G
1N
1K
0H
1&
1'
0(
#120000
0!
0"
03
05
04
1,
0K
0D
0E
0'
0+
#130000
1!
1"
13
15
14
0,
1K
1D
1E
1'
1+
1:
09
1H
0L
0D
0N
0E
1(
0&
0+
#140000
0!
0"
03
05
04
1,
0K
1C
1E
0'
1+
#150000
1!
1"
13
15
14
0,
1K
0C
0E
1'
0+
1;
0:
1O
1M
1J
0<
0P
0I
0H
1P
1N
0K
0%
0(
1%
1&
0'
#160000
0!
0"
03
05
04
1,
0M
1K
1G
0N
1H
1'
0&
1(
#170000
1!
1"
13
15
14
0,
1M
0K
0G
1N
0H
0'
1&
0(
0=
0;
1I
1>
0O
0M
0J
1<
1K
0P
0N
1'
0%
0&
#180000
0!
0"
03
05
04
1,
0K
1F
1C
1E
0'
1)
1+
#190000
1!
1"
13
15
14
0,
1K
0F
0C
0E
1'
0)
0+
1?
1=
1M
1J
0I
0>
1N
0K
1&
0'
