Lab4_328/johns/simulation/qsim/johns.msim.vcd
$comment
	File created using the following command:
		vcd file johns.msim.vcd -direction
$end
$date
	Wed Jul 29 19:44:56 2020
$end
$version
	ModelSim Version 10.1d
$end
$timescale
	1ps
$end
$scope module Johnsschem_vlg_vec_tst $end
$var reg 1 ! CLKN $end
$var reg 1 " CLRN $end
$var reg 1 # E $end
$var wire 1 $ Q [0] $end
$var wire 1 % Q [1] $end
$var wire 1 & Q [2] $end
$var wire 1 ' STUDENT_ID [3] $end
$var wire 1 ( STUDENT_ID [2] $end
$var wire 1 ) STUDENT_ID [1] $end
$var wire 1 * STUDENT_ID [0] $end
$var wire 1 + sampler $end
$scope module i1 $end
$var wire 1 , gnd $end
$var wire 1 - vcc $end
$var wire 1 . unknown $end
$var tri1 1 / devclrn $end
$var tri1 1 0 devpor $end
$var tri1 1 1 devoe $end
$var wire 1 2 CLKN~combout $end
$var wire 1 3 CLKN~clkctrl_outclk $end
$var wire 1 4 inst|Qreg[1]~feeder_combout $end
$var wire 1 5 CLRN~combout $end
$var wire 1 6 CLRN~clkctrl_outclk $end
$var wire 1 7 E~combout $end
$var wire 1 8 inst|Qreg[2]~feeder_combout $end
$var wire 1 9 inst|Qreg[0]~0_combout $end
$var wire 1 : inst|Mux0~0_combout $end
$var wire 1 ; inst|Qreg [0] $end
$var wire 1 < inst|Qreg [1] $end
$var wire 1 = inst|Qreg [2] $end
$upscope $end
$upscope $end
$enddefinitions $end
#0
$dumpvars
0!
0"
0#
0&
0%
0$
0*
0)
0(
1'
x+
0,
1-
x.
1/
10
11
02
03
04
05
06
07
08
19
0:
0=
0<
0;
$end
#10000
1!
1"
1#
12
15
17
16
13
0+
#15000
0!
02
03
1+
1;
1:
14
1$
1*
#20000
1!
12
13
0+
#25000
0!
02
03
1+
1<
0:
18
1%
0*
#30000
1!
12
13
0+
#35000
0!
02
03
1+
1=
09
1&
0'
#40000
1!
12
13
0+
#45000
0!
02
03
1+
0;
1:
04
0$
1*
#50000
1!
12
13
0+
#55000
0!
02
03
1+
0<
0:
08
0%
0*
#60000
0"
1!
05
12
13
06
0+
0=
19
0&
1'
#65000
0!
02
03
1+
#70000
1"
1!
15
12
13
16
0+
#75000
0!
02
03
1+
1;
1:
14
1$
1*
#80000
1!
12
13
0+
#85000
0!
02
03
1+
1<
0:
18
1%
0*
#90000
1!
12
13
0+
#95000
0!
02
03
1+
1=
09
1&
0'
#100000
1!
12
13
0+
#105000
0!
02
03
1+
0;
1:
04
0$
1*
