Lab3_328/Lab3a/simulation/qsim/Lab3_a.msim.vcd
$comment
	File created using the following command:
		vcd file Lab3_a.msim.vcd -direction
$end
$date
	Fri Jul 24 17:35:35 2020
$end
$version
	ModelSim Version 10.1d
$end
$timescale
	1ps
$end
$scope module ASUa_vlg_vec_tst $end
$var reg 1 ! Cin $end
$var reg 4 " X [3:0] $end
$var reg 4 # Y [3:0] $end
$var wire 1 $ Cout $end
$var wire 1 % Neg $end
$var wire 1 & Overflow $end
$var wire 1 ' S [3] $end
$var wire 1 ( S [2] $end
$var wire 1 ) S [1] $end
$var wire 1 * S [0] $end
$var wire 1 + sampler $end
$scope module i1 $end
$var wire 1 , gnd $end
$var wire 1 - vcc $end
$var wire 1 . unknown $end
$var tri1 1 / devclrn $end
$var tri1 1 0 devpor $end
$var tri1 1 1 devoe $end
$var wire 1 2 Add0~8_combout $end
$var wire 1 3 Cin~combout $end
$var wire 1 4 Add0|auto_generated|_~0_combout $end
$var wire 1 5 Add0|auto_generated|result_int[0]~1_cout $end
$var wire 1 6 Add0|auto_generated|result_int[1]~2_combout $end
$var wire 1 7 LessThan0~1_combout $end
$var wire 1 8 LessThan0~2_combout $end
$var wire 1 9 LessThan0~0_combout $end
$var wire 1 : LessThan0~3_combout $end
$var wire 1 ; Add0|auto_generated|_~1_combout $end
$var wire 1 < Add0|auto_generated|result_int[1]~3 $end
$var wire 1 = Add0|auto_generated|result_int[2]~4_combout $end
$var wire 1 > Add0~0_combout $end
$var wire 1 ? Add0~2_cout $end
$var wire 1 @ Add0~3_combout $end
$var wire 1 A Add0~5_combout $end
$var wire 1 B Add0|auto_generated|_~2_combout $end
$var wire 1 C Add0|auto_generated|result_int[2]~5 $end
$var wire 1 D Add0|auto_generated|result_int[3]~6_combout $end
$var wire 1 E Add0~6_combout $end
$var wire 1 F Add0~10_combout $end
$var wire 1 G Add0~7_combout $end
$var wire 1 H Add0~11_combout $end
$var wire 1 I Add0|auto_generated|_~3_combout $end
$var wire 1 J Add0|auto_generated|result_int[3]~7 $end
$var wire 1 K Add0|auto_generated|result_int[4]~8_combout $end
$var wire 1 L Add0~4 $end
$var wire 1 M Add0~9 $end
$var wire 1 N Add0~13_combout $end
$var wire 1 O Add0~15_combout $end
$var wire 1 P Add0~12_combout $end
$var wire 1 Q Add0~16_combout $end
$var wire 1 R Add1~1_cout $end
$var wire 1 S Add1~3_cout $end
$var wire 1 T Add1~5_cout $end
$var wire 1 U Add1~7_cout $end
$var wire 1 V Add1~8_combout $end
$var wire 1 W Add0~14 $end
$var wire 1 X Add0~17_combout $end
$var wire 1 Y Add0~19_combout $end
$var wire 1 Z Add0|auto_generated|result_int[4]~9 $end
$var wire 1 [ Add0|auto_generated|result_int[5]~10_combout $end
$var wire 1 \ Overflow~0_combout $end
$var wire 1 ] Neg$latch~combout $end
$var wire 1 ^ Y~combout [3] $end
$var wire 1 _ Y~combout [2] $end
$var wire 1 ` Y~combout [1] $end
$var wire 1 a Y~combout [0] $end
$var wire 1 b X~combout [3] $end
$var wire 1 c X~combout [2] $end
$var wire 1 d X~combout [1] $end
$var wire 1 e X~combout [0] $end
$upscope $end
$upscope $end
$enddefinitions $end
#0
$dumpvars
0!
b111 "
b1 #
0$
x%
0&
0*
0)
0(
1'
x+
0,
1-
x.
1/
10
11
02
03
14
05
06
07
08
09
0:
0;
0<
0=
0>
1?
0@
0A
0B
1C
0D
0E
0F
0G
0H
0I
0J
1K
0L
1M
1N
1O
0P
1Q
1R
0S
1T
0U
0V
1W
0X
0Y
0Z
0[
0\
x]
1a
0`
0_
0^
1e
1d
1c
0b
$end
#10000
b101 "
b100 "
b11 #
b10 #
0a
1`
0e
0d
0+
0?
17
04
1S
1;
1<
16
0C
1=
1L
1@
06
1P
1G
1J
1D
1*
0M
12
1A
0K
0*
0N
1F
1)
0O
1H
0Q
1(
0'
#20000
b0 "
b10 "
b11 "
b0 #
b1 #
1a
0`
1e
1d
0c
1+
1?
07
14
0S
0;
16
1C
0=
0T
0D
18
02
0L
0@
0<
06
1T
0C
1=
1D
1U
0F
1*
12
0A
1C
0=
0U
0D
0H
1V
0*
1F
1D
0P
0G
0V
0)
0(
1H
1P
1(
#30000
b1011 "
b1001 #
b1001 "
b1000 "
b1000 #
0a
1^
0e
0d
1b
0+
0?
04
0W
1I
1<
16
1L
1@
0C
1=
1K
0@
06
1X
1Z
0K
0=
1G
02
1A
0D
1*
0A
0P
0G
1Y
1[
0F
0*
1)
0H
1\
0)
1$
0(
1&
#40000
b0 "
b0 #
0^
0b
1+
1W
0I
0Z
1K
0X
0K
0[
0Y
0\
0$
0&
#80000
1!
b100 "
b10 #
13
1`
1c
0+
0]
1[
1Y
1I
1B
15
14
1S
1@
17
1D
08
12
1\
1K
0J
0D
0<
1P
1F
0%
1$
1O
1Z
0K
0P
1H
0F
1=
1&
1Q
0[
0O
0H
1P
1G
1>
1(
0\
0Q
1A
1'
0(
0&
0'
1)
#90000
b110 "
b111 "
b11 #
1a
1e
1d
1+
1?
07
04
16
0S
0L
0@
1C
0=
1@
06
0>
1M
02
1D
1*
0A
0G
1N
1F
0*
1H
0)
1(
#100000
b1111 "
b1011 "
b1 #
b1001 "
b1000 "
0`
0e
0d
0c
1b
0+
1L
1;
17
0R
0?
1<
16
0C
1=
0D
0M
12
1\
0W
0N
1K
02
1S
0@
1G
1>
1J
1D
0F
1W
1N
1X
1O
1*
1&
1F
0T
1A
0H
0K
0X
1Q
1H
0O
1)
0(
1'
0Q
1(
0'
#110000
b1001 #
b1000 #
b0 "
b100 "
b110 "
b111 "
1e
1d
1c
0b
0a
1^
1+
1R
07
0<
06
0S
1@
1C
0=
1T
0J
0D
19
12
1U
0Z
1K
14
0I
1E
1:
1=
0P
0G
0>
1D
0F
1V
1[
1O
16
0*
1Q
1]
0O
1P
1G
0A
0Y
0\
1*
0Q
0H
1'
1%
0)
0$
0&
0'
0(
#120000
b0 #
b11 "
b1 "
b0 "
0e
0d
0c
0^
0+
06
0@
0=
0D
09
18
02
1\
0U
0N
1I
0P
0G
1H
0E
0:
0V
1Z
0K
0*
1&
0H
0]
1Y
0[
1(
0\
0(
0%
1$
0&
