Lab6_test/simulation/qsim/moore5.msim.vcd
$comment
	File created using the following command:
		vcd file moore5.msim.vcd -direction
$end
$date
	Thu Aug 06 18:44:52 2020
$end
$version
	ModelSim Version 10.1d
$end
$timescale
	1ps
$end
$scope module test_moore_vlg_vec_tst $end
$var reg 1 ! clk $end
$var reg 1 " data_in $end
$var reg 1 # reset $end
$var wire 1 $ current_state [3] $end
$var wire 1 % current_state [2] $end
$var wire 1 & current_state [1] $end
$var wire 1 ' current_state [0] $end
$var wire 1 ( student_ID [3] $end
$var wire 1 ) student_ID [2] $end
$var wire 1 * student_ID [1] $end
$var wire 1 + student_ID [0] $end
$var wire 1 , sampler $end
$scope module i1 $end
$var wire 1 - gnd $end
$var wire 1 . vcc $end
$var wire 1 / unknown $end
$var tri1 1 0 devclrn $end
$var tri1 1 1 devpor $end
$var tri1 1 2 devoe $end
$var wire 1 3 clk~combout $end
$var wire 1 4 clk~clkctrl_outclk $end
$var wire 1 5 reset~combout $end
$var wire 1 6 reset~clkctrl_outclk $end
$var wire 1 7 data_in~combout $end
$var wire 1 8 inst|yfsm.s2~regout $end
$var wire 1 9 inst|yfsm.s7~feeder_combout $end
$var wire 1 : inst|yfsm.s7~regout $end
$var wire 1 ; inst|yfsm.s3~feeder_combout $end
$var wire 1 < inst|yfsm.s3~regout $end
$var wire 1 = inst|yfsm.s6~feeder_combout $end
$var wire 1 > inst|yfsm.s6~regout $end
$var wire 1 ? inst|yfsm.s4~feeder_combout $end
$var wire 1 @ inst|yfsm.s4~regout $end
$var wire 1 A inst|yfsm.s5~feeder_combout $end
$var wire 1 B inst|yfsm.s5~regout $end
$var wire 1 C inst|yfsm.s0~0_combout $end
$var wire 1 D inst|yfsm.s0~regout $end
$var wire 1 E inst|yfsm.s1~0_combout $end
$var wire 1 F inst|yfsm.s1~regout $end
$var wire 1 G inst|yfsm.s8~regout $end
$var wire 1 H inst|WideOr9~0_combout $end
$var wire 1 I inst|WideOr10~combout $end
$var wire 1 J inst|WideOr11~0_combout $end
$var wire 1 K inst|WideOr10~0_combout $end
$var wire 1 L inst|WideOr13~combout $end
$upscope $end
$upscope $end
$enddefinitions $end
#0
$dumpvars
0!
0"
0#
0'
0&
0%
0$
1+
0*
1)
0(
x,
0-
1.
x/
10
11
12
03
04
05
06
07
08
09
0:
0;
0<
0=
0>
0?
0@
0A
0B
1C
0D
1E
0F
0G
0H
0I
0J
1K
1L
$end
#10000
1!
1"
13
17
14
0,
1F
1D
1J
0L
0E
0)
1'
0+
#20000
0!
0"
03
07
04
1,
#30000
1!
1"
13
17
14
0,
1G
0F
0J
1$
0'
#40000
0!
0"
03
07
04
1,
#50000
1!
1"
13
17
14
0,
0G
18
0K
1I
19
0$
1&
1(
#60000
0!
0"
03
07
04
1,
#70000
1!
1"
13
17
14
0,
1:
08
1L
1J
1H
1;
09
1+
1'
1%
#80000
0!
0"
03
07
04
1,
#90000
1!
1"
13
17
14
0,
1<
0:
1=
0L
0H
0;
0+
0%
#100000
0!
0"
03
07
04
1,
#110000
1!
1"
13
17
14
0,
1>
0<
1H
1?
1K
0J
0=
1%
0'
0(
#120000
0!
0"
03
07
04
1,
#130000
1!
1"
13
17
14
0,
1@
0>
1L
1A
0I
0?
1+
0&
#140000
0!
0"
03
07
04
1,
#150000
1!
1"
13
17
14
0,
1B
0@
1J
0C
0L
0A
1'
0+
#160000
0!
0"
03
07
04
1,
#170000
1!
1"
13
17
14
0,
0D
0B
1L
1E
0J
0H
1C
1)
1+
0'
0%
#180000
0!
0"
03
07
04
1,
#190000
1!
1"
13
17
14
0,
1F
1D
1J
0L
0E
0)
1'
0+
#200000
0!
0"
03
07
04
1,
#210000
1!
1"
13
17
14
0,
1G
0F
0J
1$
0'
